﻿division_template = {
	name = "丧尸群"	# Represents: two-division infantry corps (generally poorly-equipped, but decent experience),
	#	SOE divisions were well-trained in guerilla mountain tactics.
	regiments = {
		infantry = { x = 0 y = 0 } infantry = { x = 1 y = 0 } infantry = { x = 2 y = 0 } artillery_brigade = { x = 3 y = 0 }
		infantry = { x = 0 y = 1 } infantry = { x = 1 y = 1 } infantry = { x = 2 y = 1 } artillery_brigade = { x = 3 y = 1 }
		infantry = { x = 0 y = 2 } infantry = { x = 1 y = 2 } 							 artillery_brigade = { x = 3 y = 2 }
		infantry = { x = 0 y = 3 } infantry = { x = 1 y = 3 }
	}
	support = {
		artillery = { x = 0 y = 1 }
	}
}

units = {
	##### Eighth Route Army (CO: Mao Zedong, Zhu De) #####
	division = {
		name = "丧尸群"
		location = 2026
		division_template = "丧尸群"
		start_experience_factor = 0.1
	}
	division = {
		name = "丧尸群"
		location = 2026
		division_template = "丧尸群"
		start_experience_factor = 0.1
	}
	division = {
		name = "丧尸群"
		location = 2026
		division_template = "丧尸群"
		start_experience_factor = 0.1
	}
	division = {
		name = "丧尸群"
		location = 2026
		division_template = "丧尸群"
		start_experience_factor = 0.1
	}
	division = {
		name = "丧尸群"
		location = 2026
		division_template = "丧尸群"
		start_experience_factor = 0.1
	}
	division = {
		name = "丧尸群"
		location = 2026
		division_template = "丧尸群"
		start_experience_factor = 0.1
	}
	division = {
		name = "丧尸群"
		location = 2026
		division_template = "丧尸群"
		start_experience_factor = 0.1
	}
	division = {
		name = "丧尸群"
		location = 2026
		division_template = "丧尸群"
		start_experience_factor = 0.1
	}
	division = {
		name = "丧尸群"
		location = 2026
		division_template = "丧尸群"
		start_experience_factor = 0.1
	}
	division = {
		name = "丧尸群"
		location = 2026
		division_template = "丧尸群"
		start_experience_factor = 0.1
	}
	division = {
		name = "丧尸群"
		location = 2026
		division_template = "丧尸群"
		start_experience_factor = 0.1
	}
	division = {
		name = "丧尸群"
		location = 2026
		division_template = "丧尸群"
		start_experience_factor = 0.1
	}
	division = {
		name = "丧尸群"
		location = 2026
		division_template = "丧尸群"
		start_experience_factor = 0.1
	}
	division = {
		name = "丧尸群"
		location = 2026
		division_template = "丧尸群"
		start_experience_factor = 0.1
	}
	division = {
		name = "丧尸群"
		location = 2026
		division_template = "丧尸群"
		start_experience_factor = 0.1
	}
	division = {
		name = "丧尸群"
		location = 2026
		division_template = "丧尸群"
		start_experience_factor = 0.1
	}
	division = {
		name = "丧尸群"
		location = 2026
		division_template = "丧尸群"
		start_experience_factor = 0.1
	}
	division = {
		name = "丧尸群"
		location = 2026
		division_template = "丧尸群"
		start_experience_factor = 0.1
	}
	division = {
		name = "丧尸群"
		location = 2026
		division_template = "丧尸群"
		start_experience_factor = 0.1
	}
	division = {
		name = "丧尸群"
		location = 2026
		division_template = "丧尸群"
		start_experience_factor = 0.1
	}
	division = {
		name = "丧尸群"
		location = 2026
		division_template = "丧尸群"
		start_experience_factor = 0.1
	}
	division = {
		name = "丧尸群"
		location = 2026
		division_template = "丧尸群"
		start_experience_factor = 0.1
	}
	division = {
		name = "丧尸群"
		location = 2026
		division_template = "丧尸群"
		start_experience_factor = 0.1
	}
	division = {
		name = "丧尸群"
		location = 2026
		division_template = "丧尸群"
		start_experience_factor = 0.1
	}
	division = {
		name = "丧尸群"
		location = 2026
		division_template = "丧尸群"
		start_experience_factor = 0.1
	}
	division = {
		name = "丧尸群"
		location = 2026
		division_template = "丧尸群"
		start_experience_factor = 0.1
	}
	division = {
		name = "丧尸群"
		location = 2026
		division_template = "丧尸群"
		start_experience_factor = 0.1
	}
	division = {
		name = "丧尸群"
		location = 2026
		division_template = "丧尸群"
		start_experience_factor = 0.1
	}
	division = {
		name = "丧尸群"
		location = 2026
		division_template = "丧尸群"
		start_experience_factor = 0.1
	}
	division = {
		name = "丧尸群"
		location = 2026
		division_template = "丧尸群"
		start_experience_factor = 0.1
	}
	division = {
		name = "丧尸群"
		location = 2026
		division_template = "丧尸群"
		start_experience_factor = 0.1
	}
	division = {
		name = "丧尸群"
		location = 2026
		division_template = "丧尸群"
		start_experience_factor = 0.1
	}
	division = {
		name = "丧尸群"
		location = 2026
		division_template = "丧尸群"
		start_experience_factor = 0.1
	}
	division = {
		name = "丧尸群"
		location = 2026
		division_template = "丧尸群"
		start_experience_factor = 0.1
	}
	division = {
		name = "丧尸群"
		location = 2026
		division_template = "丧尸群"
		start_experience_factor = 0.1
	}
	division = {
		name = "丧尸群"
		location = 2026
		division_template = "丧尸群"
		start_experience_factor = 0.1
	}
	division = {
		name = "丧尸群"
		location = 2026
		division_template = "丧尸群"
		start_experience_factor = 0.1
	}
	division = {
		name = "丧尸群"
		location = 2026
		division_template = "丧尸群"
		start_experience_factor = 0.1
	}
	division = {
		name = "丧尸群"
		location = 2026
		division_template = "丧尸群"
		start_experience_factor = 0.1
	}
	division = {
		name = "丧尸群"
		location = 2026
		division_template = "丧尸群"
		start_experience_factor = 0.1
	}
	division = {
		name = "丧尸群"
		location = 2026
		division_template = "丧尸群"
		start_experience_factor = 0.1
	}
	division = {
		name = "丧尸群"
		location = 2026
		division_template = "丧尸群"
		start_experience_factor = 0.1
	}
	division = {
		name = "丧尸群"
		location = 2026
		division_template = "丧尸群"
		start_experience_factor = 0.1
	}
	division = {
		name = "丧尸群"
		location = 2026
		division_template = "丧尸群"
		start_experience_factor = 0.1
	}
	division = {
		name = "丧尸群"
		location = 2026
		division_template = "丧尸群"
		start_experience_factor = 0.1
	}
	division = {
		name = "丧尸群"
		location = 2026
		division_template = "丧尸群"
		start_experience_factor = 0.1
	}
	division = {
		name = "丧尸群"
		location = 2026
		division_template = "丧尸群"
		start_experience_factor = 0.1
	}
	division = {
		name = "丧尸群"
		location = 2026
		division_template = "丧尸群"
		start_experience_factor = 0.1
	}
	division = {
		name = "丧尸群"
		location = 2026
		division_template = "丧尸群"
		start_experience_factor = 0.1
	}
	division = {
		name = "丧尸群"
		location = 2026
		division_template = "丧尸群"
		start_experience_factor = 0.1
	}
	division = {
		name = "丧尸群"
		location = 2026
		division_template = "丧尸群"
		start_experience_factor = 0.1
	}
	division = {
		name = "丧尸群"
		location = 2026
		division_template = "丧尸群"
		start_experience_factor = 0.1
	}
	division = {
		name = "丧尸群"
		location = 2026
		division_template = "丧尸群"
		start_experience_factor = 0.1
	}
	division = {
		name = "丧尸群"
		location = 2026
		division_template = "丧尸群"
		start_experience_factor = 0.1
	}
	division = {
		name = "丧尸群"
		location = 2026
		division_template = "丧尸群"
		start_experience_factor = 0.1
	}
	division = {
		name = "丧尸群"
		location = 2026
		division_template = "丧尸群"
		start_experience_factor = 0.1
	}
	division = {
		name = "丧尸群"
		location = 2026
		division_template = "丧尸群"
		start_experience_factor = 0.1
	}
	division = {
		name = "丧尸群"
		location = 2026
		division_template = "丧尸群"
		start_experience_factor = 0.1
	}
	division = {
		name = "丧尸群"
		location = 2026
		division_template = "丧尸群"
		start_experience_factor = 0.1
	}
	division = {
		name = "丧尸群"
		location = 2026
		division_template = "丧尸群"
		start_experience_factor = 0.1
	}
	division = {
		name = "丧尸群"
		location = 2026
		division_template = "丧尸群"
		start_experience_factor = 0.1
	}
	division = {
		name = "丧尸群"
		location = 2026
		division_template = "丧尸群"
		start_experience_factor = 0.1
	}
	division = {
		name = "丧尸群"
		location = 2026
		division_template = "丧尸群"
		start_experience_factor = 0.1
	}
	division = {
		name = "丧尸群"
		location = 2026
		division_template = "丧尸群"
		start_experience_factor = 0.1
	}
	division = {
		name = "丧尸群"
		location = 2026
		division_template = "丧尸群"
		start_experience_factor = 0.1
	}
	division = {
		name = "丧尸群"
		location = 2026
		division_template = "丧尸群"
		start_experience_factor = 0.1
	}
	division = {
		name = "丧尸群"
		location = 2026
		division_template = "丧尸群"
		start_experience_factor = 0.1
	}
	division = {
		name = "丧尸群"
		location = 2026
		division_template = "丧尸群"
		start_experience_factor = 0.1
	}
	division = {
		name = "丧尸群"
		location = 2026
		division_template = "丧尸群"
		start_experience_factor = 0.1
	}
	division = {
		name = "丧尸群"
		location = 2026
		division_template = "丧尸群"
		start_experience_factor = 0.1
	}
	division = {
		name = "丧尸群"
		location = 2026
		division_template = "丧尸群"
		start_experience_factor = 0.1
	}
	division = {
		name = "丧尸群"
		location = 2026
		division_template = "丧尸群"
		start_experience_factor = 0.1
	}
	division = {
		name = "丧尸群"
		location = 2026
		division_template = "丧尸群"
		start_experience_factor = 0.1
	}
	division = {
		name = "丧尸群"
		location = 2026
		division_template = "丧尸群"
		start_experience_factor = 0.1
	}
	division = {
		name = "丧尸群"
		location = 2026
		division_template = "丧尸群"
		start_experience_factor = 0.1
	}
	division = {
		name = "丧尸群"
		location = 2026
		division_template = "丧尸群"
		start_experience_factor = 0.1
	}
	division = {
		name = "丧尸群"
		location = 2026
		division_template = "丧尸群"
		start_experience_factor = 0.1
	}
	division = {
		name = "丧尸群"
		location = 2026
		division_template = "丧尸群"
		start_experience_factor = 0.1
	}
	division = {
		name = "丧尸群"
		location = 2026
		division_template = "丧尸群"
		start_experience_factor = 0.1
	}
	division = {
		name = "丧尸群"
		location = 2026
		division_template = "丧尸群"
		start_experience_factor = 0.1
	}
}
